…
    ##  8 corvette         6.2  2008     8 manual(… r        16    26 p     2seat…
    ##  9 corvette         6.2  2008     8 auto(s6) r        15    25 p     2seat…
    ## 10 corvette         7    2008     8 manual(… r        15    24 p     2seat…
    ## 11 k1500 tahoe 4…   5.3  2008     8 auto(l4) 4        14    19 r     suv   
    ## 12 k1500 tahoe 4…   5.3  2008     8 auto(l4) 4        11    14 e     suv   
    ## 13 k1500 tahoe 4…   5.7  1999     8 auto(l4) 4        11    15 r     suv   
    ## 14 k1500 tahoe 4…   6.5  1999     8 auto(l4) 4        14    17 d     suv   
    ## 15 malibu           2.4  1999     4 auto(l4) f        19    27 r     midsi…
    ## 16 malibu           2.4  2008     4 auto(l4) f        22    30 r     midsi…
    ## 17 malibu           3.1  1999     6 auto(l4) f        18    26 r     midsi…
    ## 18 malibu           3.5  2008     6 auto(l4) f        18    29 r     midsi…
    ## 19 malibu           3.6  2008     6 auto(s6) f        17    26 r     midsi…
    ## 
    ## $dodge
    ## # A tibble: 37 x 10
    ##    model       displ  year   cyl trans    drv     cty   hwy fl    class  
    ##    <chr>       <dbl> <dbl> <dbl> <chr>    <chr> <dbl> <dbl> <chr> <chr>  
    ##  1 caravan 2wd   2.4  1999     4 auto(l3) f        18    24 r     minivan
    ##  2 caravan 2wd   3    1999     6 auto(l4) f        17    24 r     minivan
    ##  3 caravan 2wd   3.3  1999     6 auto(l4) f        16    22 r     minivan
    ##  4 caravan 2wd   3.3  1999     6 auto(l4) f        16    22 r     minivan
    ##  5 caravan 2wd   3.3  2008     6 auto(l4) f        17    24 r     minivan
    ##  6 caravan 2wd   3.3  2008     6 auto(l4) f        17    24 r     minivan
    ##  7 caravan 2wd   3.3  2008     6 auto(l4) f        11    17 e     minivan
    ##  8 caravan 2wd   3.8  1999     6 auto(l4) f        15    22 r     minivan
    ##  9 caravan 2wd   3.8  1999     6 auto(l4) f        15    21 r     minivan
    ## 10 caravan 2wd   3.8  2008     6 auto(l6) f        16    23 r     minivan
    ## # … with 27 more rows
    ## 
    ## $ford
    ## # A tibble: 25 x 10
    ##    model          displ  year   cyl trans     drv     cty   hwy fl    class
    ##    <chr>          <dbl> <dbl> <dbl> <chr>     <chr> <dbl> <dbl> <chr> <chr>
    ##  1 expedition 2wd   4.6  1999     8 auto(l4)  r        11    17 r     suv  
    ##  2 expedition 2wd   5.4  1999     8 auto(l4)  r        11    17 r     suv  
    ##  3 expedition 2wd   5.4  2008     8 auto(l6)  r        12    18 r     suv  
    ##  4 explorer 4wd     4    1999     6 auto(l5)  4        14    17 r     suv  
    ##  5 explorer 4wd     4    1999     6 manual(m… 4        15    19 r     suv  
    ##  6 explorer 4wd     4    1999     6 auto(l5)  4        14    17 r     suv  
    ##  7 explorer 4wd     4    2008     6 auto(l5)  4        13    19 r     suv  
    ##  8 explorer 4wd     4.6  2008     8 auto(l6)  4        13    19 r     suv  
    ##  9 explorer 4wd     5    1999     8 auto(l4)  4        13    17 r     suv  
    ## 10 f150 pickup 4…   4.2  1999     6 auto(l4)  4        14    17 r     pick…
    ## # … with 15 more rows
    ## 
    ## $honda
…
    ##  3 forester a…   2.5  2008     4 manual(m… 4        20    27 r     suv     
    ##  4 forester a…   2.5  2008     4 manual(m… 4        19    25 p     suv     
    ##  5 forester a…   2.5  2008     4 auto(l4)  4        20    26 r     suv     
    ##  6 forester a…   2.5  2008     4 auto(l4)  4        18    23 p     suv     
    ##  7 impreza awd   2.2  1999     4 auto(l4)  4        21    26 r     subcomp…
    ##  8 impreza awd   2.2  1999     4 manual(m… 4        19    26 r     subcomp…
    ##  9 impreza awd   2.5  1999     4 manual(m… 4        19    26 r     subcomp…
    ## 10 impreza awd   2.5  1999     4 auto(l4)  4        19    26 r     subcomp…
    ## 11 impreza awd   2.5  2008     4 auto(s4)  4        20    25 p     compact 
    ## 12 impreza awd   2.5  2008     4 auto(s4)  4        20    27 r     compact 
    ## 13 impreza awd   2.5  2008     4 manual(m… 4        19    25 p     compact 
    ## 14 impreza awd   2.5  2008     4 manual(m… 4        20    27 r     compact 
    ## 
    ## $toyota
    ## # A tibble: 34 x 10
    ##    model       displ  year   cyl trans      drv     cty   hwy fl    class  
    ##    <chr>       <dbl> <dbl> <dbl> <chr>      <chr> <dbl> <dbl> <chr> <chr>  
    ##  1 4runner 4wd   2.7  1999     4 manual(m5) 4        15    20 r     suv    
    ##  2 4runner 4wd   2.7  1999     4 auto(l4)   4        16    20 r     suv    
    ##  3 4runner 4wd   3.4  1999     6 auto(l4)   4        15    19 r     suv    
    ##  4 4runner 4wd   3.4  1999     6 manual(m5) 4        15    17 r     suv    
    ##  5 4runner 4wd   4    2008     6 auto(l5)   4        16    20 r     suv    
    ##  6 4runner 4wd   4.7  2008     8 auto(l5)   4        14    17 r     suv    
    ##  7 camry         2.2  1999     4 manual(m5) f        21    29 r     midsize
    ##  8 camry         2.2  1999     4 auto(l4)   f        21    27 r     midsize
    ##  9 camry         2.4  2008     4 manual(m5) f        21    31 r     midsize
    ## 10 camry         2.4  2008     4 auto(l5)   f        21    31 r     midsize
    ## # … with 24 more rows
    ## 
    ## $volkswagen
    ## # A tibble: 27 x 10
    ##    model displ  year   cyl trans      drv     cty   hwy fl    class  
    ##    <chr> <dbl> <dbl> <dbl> <chr>      <chr> <dbl> <dbl> <chr> <chr>  
    ##  1 gti     2    1999     4 manual(m5) f        21    29 r     compact
    ##  2 gti     2    1999     4 auto(l4)   f        19    26 r     compact
    ##  3 gti     2    2008     4 manual(m6) f        21    29 p     compact
    ##  4 gti     2    2008     4 auto(s6)   f        22    29 p     compact
    ##  5 gti     2.8  1999     6 manual(m5) f        17    24 r     compact
    ##  6 jetta   1.9  1999     4 manual(m5) f        33    44 d     compact
    ##  7 jetta   2    1999     4 manual(m5) f        21    29 r     compact
    ##  8 jetta   2    1999     4 auto(l4)   f        19    26 r     compact
    ##  9 jetta   2    2008     4 auto(s6)   f        22    29 p     compact
    ## 10 jetta   2    2008     4 manual(m6) f        21    29 p     compact
    ## # … with 17 more rows

``` r
map_df(SHEETS,
       ~readxl::read_excel(path = FILE, sheet = .x),
       .id = "manufacturer")
```

    ## # A tibble: 234 x 11
    ##    manufacturer model displ  year   cyl trans drv     cty   hwy fl    class
    ##    <chr>        <chr> <dbl> <dbl> <dbl> <chr> <chr> <dbl> <dbl> <chr> <chr>
    ##  1 audi         a4      1.8  1999     4 auto… f        18    29 p     comp…
    ##  2 audi         a4      1.8  1999     4 manu… f        21    29 p     comp…
    ##  3 audi         a4      2    2008     4 manu… f        20    31 p     comp…
    ##  4 audi         a4      2    2008     4 auto… f        21    30 p     comp…
    ##  5 audi         a4      2.8  1999     6 auto… f        16    26 p     comp…
    ##  6 audi         a4      2.8  1999     6 manu… f        18    26 p     comp…
    ##  7 audi         a4      3.1  2008     6 auto… f        18    27 p     comp…
    ##  8 audi         a4 q…   1.8  1999     4 manu… 4        18    26 p     comp…
    ##  9 audi         a4 q…   1.8  1999     4 auto… 4        16    25 p     comp…
    ## 10 audi         a4 q…   2    2008     4 manu… 4        20    28 p     comp…
    ## # … with 224 more rows
…
