…
    ## # A tibble: 4 x 1
    ##   b    
    ##   <chr>
    ## 1 A    
    ## 2 B    
    ## 3 C    
    ## 4 N

``` r
# using them...

mpg
```

    ## # A tibble: 234 x 11
    ##    manufacturer model displ  year   cyl trans drv     cty   hwy fl    class
    ##    <chr>        <chr> <dbl> <int> <int> <chr> <chr> <int> <int> <chr> <chr>
    ##  1 audi         a4      1.8  1999     4 auto… f        18    29 p     comp…
    ##  2 audi         a4      1.8  1999     4 manu… f        21    29 p     comp…
    ##  3 audi         a4      2    2008     4 manu… f        20    31 p     comp…
    ##  4 audi         a4      2    2008     4 auto… f        21    30 p     comp…
    ##  5 audi         a4      2.8  1999     6 auto… f        16    26 p     comp…
    ##  6 audi         a4      2.8  1999     6 manu… f        18    26 p     comp…
    ##  7 audi         a4      3.1  2008     6 auto… f        18    27 p     comp…
    ##  8 audi         a4 q…   1.8  1999     4 manu… 4        18    26 p     comp…
    ##  9 audi         a4 q…   1.8  1999     4 auto… 4        16    25 p     comp…
    ## 10 audi         a4 q…   2    2008     4 manu… 4        20    28 p     comp…
    ## # … with 224 more rows
…
    ##            displ         year        cyl         cty          hwy
    ## displ  1.0000000  0.147842816  0.9302271 -0.79852397 -0.766020021
    ## year   0.1478428  1.000000000  0.1222453 -0.03723229  0.002157643
    ## cyl    0.9302271  0.122245347  1.0000000 -0.80577141 -0.761912354
    ## cty   -0.7985240 -0.037232291 -0.8057714  1.00000000  0.955915914
    ## hwy   -0.7660200  0.002157643 -0.7619124  0.95591591  1.000000000

``` r
mpg
```

    ## # A tibble: 234 x 11
    ##    manufacturer model displ  year   cyl trans drv     cty   hwy fl    class
    ##    <chr>        <chr> <dbl> <int> <int> <chr> <chr> <int> <int> <chr> <chr>
    ##  1 audi         a4      1.8  1999     4 auto… f        18    29 p     comp…
    ##  2 audi         a4      1.8  1999     4 manu… f        21    29 p     comp…
    ##  3 audi         a4      2    2008     4 manu… f        20    31 p     comp…
    ##  4 audi         a4      2    2008     4 auto… f        21    30 p     comp…
    ##  5 audi         a4      2.8  1999     6 auto… f        16    26 p     comp…
    ##  6 audi         a4      2.8  1999     6 manu… f        18    26 p     comp…
    ##  7 audi         a4      3.1  2008     6 auto… f        18    27 p     comp…
    ##  8 audi         a4 q…   1.8  1999     4 manu… 4        18    26 p     comp…
    ##  9 audi         a4 q…   1.8  1999     4 auto… 4        16    25 p     comp…
    ## 10 audi         a4 q…   2    2008     4 manu… 4        20    28 p     comp…
    ## # … with 224 more rows
…
